[ 
  { "item": "Sample Product 1", 
    "description": "Ut nisl odio, mollis ac fringilla quis, ultrices at eros. Nunc at eros vestibulum, gravida lorem id, ultrices lectus. ",
    "image": "https://upload.wikimedia.org/wikipedia/commons/a/a9/PIA23791-Venus-NewlyProcessedView-20200608.jpg", 
    "quantity": 3, 
    "price": 300,
    "delete": ""
  },
  { "item": "Sample Product 2", 
    "description": "Ut nisl odio, mollis ac fringilla quis, ultrices at eros. Nunc at eros vestibulum, gravida lorem id, ultrices lectus.  ",
    "image": "https://upload.wikimedia.org/wikipedia/commons/a/a9/PIA23791-Venus-NewlyProcessedView-20200608.jpg", 
    "quantity": 4, 
    "price": 100,
    "delete": ""
  }
]